<?xml version="1.0" encoding="UTF-8" standalone="no"?>
<!-- Created with Inkscape (http://www.inkscape.org/) -->

<svg
   xmlns:dc="http://purl.org/dc/elements/1.1/"
   xmlns:cc="http://creativecommons.org/ns#"
   xmlns:rdf="http://www.w3.org/1999/02/22-rdf-syntax-ns#"
   xmlns:svg="http://www.w3.org/2000/svg"
   xmlns="http://www.w3.org/2000/svg"
   xmlns:sodipodi="http://sodipodi.sourceforge.net/DTD/sodipodi-0.dtd"
   xmlns:inkscape="http://www.inkscape.org/namespaces/inkscape"
   width="744.09448819"
   height="1052.3622047"
   id="svg2"
   version="1.1"
   inkscape:version="0.47pre4 r22446"
   sodipodi:docname="led-pair.svg">
  <defs
     id="defs4">
    <inkscape:perspective
       sodipodi:type="inkscape:persp3d"
       inkscape:vp_x="0 : 526.18109 : 1"
       inkscape:vp_y="0 : 1000 : 0"
       inkscape:vp_z="744.09448 : 526.18109 : 1"
       inkscape:persp3d-origin="372.04724 : 350.78739 : 1"
       id="perspective10" />
  </defs>
  <sodipodi:namedview
     id="base"
     pagecolor="#ffffff"
     bordercolor="#666666"
     borderopacity="1.0"
     inkscape:pageopacity="0.0"
     inkscape:pageshadow="2"
     inkscape:zoom="1.4"
     inkscape:cx="344.16149"
     inkscape:cy="541.96109"
     inkscape:document-units="px"
     inkscape:current-layer="layer1"
     showgrid="false"
     inkscape:window-width="1600"
     inkscape:window-height="1126"
     inkscape:window-x="0"
     inkscape:window-y="25"
     inkscape:window-maximized="1" />
  <metadata
     id="metadata7">
    <rdf:RDF>
      <cc:Work
         rdf:about="">
        <dc:format>image/svg+xml</dc:format>
        <dc:type
           rdf:resource="http://purl.org/dc/dcmitype/StillImage" />
        <dc:title></dc:title>
      </cc:Work>
    </rdf:RDF>
  </metadata>
  <g
     inkscape:label="Layer 1"
     inkscape:groupmode="layer"
     id="layer1">
    <path
       style="fill:none;stroke:#000000;stroke-width:1px;stroke-linecap:butt;stroke-linejoin:miter;stroke-opacity:1"
       d="m 345.47217,452.33157 c 0,2.35702 0,4.71405 0,7.07107 0,0.33672 -0.23809,0.77206 0,1.01015 0.2381,0.2381 0.85957,-0.30117 1.01015,0 0.45176,0.90351 -0.45175,2.12695 0,3.03046 0.21296,0.42592 0.85957,0.5584 1.01016,1.01015 0.31943,0.95832 0,2.02031 0,3.03046 0,2.69374 0,5.38748 0,8.08122 0,0.52823 -0.13281,3.775 0,4.04061 0.21295,0.42592 0.79719,0.58423 1.01015,1.01015 0.15371,0.30743 0,2.57553 0,3.03046 0,3.36717 0,6.73435 0,10.10153 0,2.69374 0,5.38748 0,8.08122 0,0.33671 0,0.67343 0,1.01015 0,0.33672 0.23809,0.77206 0,1.01015 -0.2381,0.2381 -0.77206,-0.23809 -1.01015,0 -0.88265,0.88264 1.01015,1.62582 1.01015,2.02031 0,0.33671 -0.77206,-0.2381 -1.01015,0 -0.2764,0.2764 0.27399,3.49261 0,4.04061 -0.21296,0.42591 -0.7972,0.58423 -1.01016,1.01015 -0.67343,1.34687 1.01016,1.01015 -1.01015,1.01015"
       id="path2816" />
    <path
       style="fill:none;stroke:#000000;stroke-width:1px;stroke-linecap:butt;stroke-linejoin:miter;stroke-opacity:1"
       d="m 314.15744,535.16408 33.33504,-23.23351"
       id="path2818" />
    <path
       style="fill:none;stroke:#000000;stroke-width:1px;stroke-linecap:butt;stroke-linejoin:miter;stroke-opacity:1"
       d="m 315.16759,540.21484 51.51778,30.30458 -53.53808,31.31473"
       id="path2820" />
    <path
       style="fill:none;stroke:#000000;stroke-width:1px;stroke-linecap:butt;stroke-linejoin:miter;stroke-opacity:1"
       d="m 315.16759,601.83415 38.3858,32.32488 -3.03046,49.49747"
       id="path2822" />
    <path
       style="fill:none;stroke:#000000;stroke-width:1px;stroke-linecap:butt;stroke-linejoin:miter;stroke-opacity:1"
       d="m 433.35544,455.36203 -88.89342,1.01015 -58.74773,-0.43857 0,-78.57143"
       id="path2824" />
    <path
       style="fill:none;stroke:#000000;stroke-width:1px;stroke-linecap:butt;stroke-linejoin:miter;stroke-opacity:1"
       d="m 430.71429,455.21932 -2.85715,-84.28571"
       id="path2826" />
    <path
       style="fill:none;stroke:#000000;stroke-width:1px;stroke-linecap:butt;stroke-linejoin:miter;stroke-opacity:1"
       d="m 290.71429,280.21932 0,59.28572"
       id="path2830" />
    <path
       style="fill:none;stroke:#000000;stroke-width:1px;stroke-linecap:butt;stroke-linejoin:miter;stroke-opacity:1"
       d="m 400.71429,370.21932 48.57142,-0.71428"
       id="path2832" />
    <path
       style="fill:none;stroke:#000000;stroke-width:1px;stroke-linecap:butt;stroke-linejoin:miter;stroke-opacity:1"
       d="m 450,368.79075 -22.14286,-40.71428 -24.28571,41.42857"
       id="path2834" />
    <path
       style="fill:none;stroke:#000000;stroke-width:0.90151048px;stroke-linecap:butt;stroke-linejoin:miter;stroke-opacity:1"
       d="m 422.8079,278.02722 5.09848,50.09849"
       id="path2836" />
    <path
       style="fill:none;stroke:#000000;stroke-width:1px;stroke-linecap:butt;stroke-linejoin:miter;stroke-opacity:1"
       d="M 359.28571,274.50504 357.14286,221.6479"
       id="path2840" />
    <path
       style="fill:none;stroke:#000000;stroke-width:1px;stroke-linecap:butt;stroke-linejoin:miter;stroke-opacity:1"
       d="M 261.42857,340.21932 315,338.79075 l -28.57143,42.14286 -25,-40.71429 z"
       id="path2842" />
    <text
       xml:space="preserve"
       style="font-size:40px;font-style:normal;font-weight:normal;fill:#000000;fill-opacity:1;stroke:none;font-family:Bitstream Vera Sans"
       x="381.42856"
       y="570.2193"
       id="text2865"><tspan
         sodipodi:role="line"
         id="tspan2867"
         x="381.42856"
         y="570.2193">470 ohm</tspan></text>
    <path
       style="fill:none;stroke:#000000;stroke-width:1px;stroke-linecap:butt;stroke-linejoin:miter;stroke-opacity:1"
       d="m 130.71429,224.50504 225.71428,-2.14286"
       id="path2869" />
    <path
       style="fill:none;stroke:#000000;stroke-width:1px;stroke-linecap:butt;stroke-linejoin:miter;stroke-opacity:1"
       d="M 350,680.21933 157.14286,678.79075"
       id="path2871" />
    <text
       xml:space="preserve"
       style="font-size:40px;font-style:normal;font-weight:normal;fill:#000000;fill-opacity:1;stroke:none;font-family:Bitstream Vera Sans"
       x="463.57144"
       y="343.79074"
       id="text2873"><tspan
         sodipodi:role="line"
         id="tspan2875"
         x="463.57144"
         y="343.79074">red</tspan></text>
    <text
       xml:space="preserve"
       style="font-size:40px;font-style:normal;font-weight:normal;fill:#000000;fill-opacity:1;stroke:none;font-family:Bitstream Vera Sans"
       x="175"
       y="336.64789"
       id="text2877"><tspan
         sodipodi:role="line"
         id="tspan2879"
         x="175"
         y="336.64789">green</tspan></text>
    <path
       style="fill:none;stroke:#000000;stroke-width:1px;stroke-linecap:butt;stroke-linejoin:miter;stroke-opacity:1"
       d="m 288.57143,279.50504 133.57143,-2.14286"
       id="path2881" />
  </g>
</svg>
